<svg xmlns="http://www.w3.org/2000/svg" width="45" height="58" viewBox="0 0 45 58">
  <g id="Group_2609" data-name="Group 2609" transform="translate(-38 -442)">
    <rect id="Rectangle_9" data-name="Rectangle 9" width="45" height="58" rx="8" transform="translate(38 442)" fill="#fff" opacity="0"/>
    <g id="lightning" transform="translate(-45.774 456.215)">
      <path id="Path_12" data-name="Path 12" d="M104.326,31.4,116.5,10.437a.66.66,0,0,0-.659-.985l-8.1,1.1L109.68.393a.33.33,0,0,0-.587-.261L97.12,15.936a.66.66,0,0,0,.595,1.054l8.93-.94-2.928,15.125A.33.33,0,0,0,104.326,31.4Z" transform="translate(0 0)" fill="#ffdc64"/>
      <path id="Path_13" data-name="Path 13" d="M100.864,14.832a.273.273,0,0,1-.253-.417L109.563.093a.325.325,0,0,0-.47.055L97.12,15.952a.66.66,0,0,0,.595,1.054l8.93-.94-2.928,15.125a.32.32,0,0,0,.259.382L108.993,15.7a1.1,1.1,0,0,0-1.136-1.427Z" transform="translate(0 -0.016)" fill="#ffc850"/>
    </g>
  </g>
</svg>
